[2020-11-06T18:43:39.225Z] info  Using user-data-dir ~/.local/share/code-server
[2020-11-06T18:43:39.230Z] info  code-server 3.6.1 62735da69466a444561ab9b1115dc7c4d496d455
[2020-11-06T18:43:39.231Z] info  Using config file ~/.config/code-server/config.yaml
[2020-11-06T18:43:39.235Z] info  HTTP server listening on http://0.0.0.0:80
[2020-11-06T18:43:39.235Z] info      - Using password from ~/.config/code-server/config.yaml
[2020-11-06T18:43:39.235Z] info      - To disable use `--auth none`
[2020-11-06T18:43:39.235Z] info    - Not serving HTTPS
[2020-11-29T04:20:13.523Z] info  Wrote default config file to ~/.config/code-server/config.yaml
[2020-11-29T04:20:13.778Z] info  Using user-data-dir ~/.local/share/code-server
[2020-11-29T04:20:13.797Z] info  code-server 3.6.1 62735da69466a444561ab9b1115dc7c4d496d455
[2020-11-29T04:20:13.797Z] info  Using config file ~/.config/code-server/config.yaml
[2020-11-29T04:20:13.802Z] info  HTTP server listening on http://127.0.0.1:8080
[2020-11-29T04:20:13.802Z] info      - Using password from ~/.config/code-server/config.yaml
[2020-11-29T04:20:13.802Z] info      - To disable use `--auth none`
[2020-11-29T04:20:13.802Z] info    - Not serving HTTPS
